-- Merging decision tree log ---
manifest
ADDED from /media/anas/Local Disk1/anas/testcase/testcase/android/app/src/main/AndroidManifest.xml:1:1-47:12
INJECTED from /media/anas/Local Disk1/anas/testcase/testcase/android/app/src/main/AndroidManifest.xml:1:1-47:12
INJECTED from /media/anas/Local Disk1/anas/testcase/testcase/android/app/src/main/AndroidManifest.xml:1:1-47:12
INJECTED from /media/anas/Local Disk1/anas/testcase/testcase/android/app/src/main/AndroidManifest.xml:1:1-47:12
MERGED from /media/anas/Local Disk1/anas/testcase/testcase/android/app/src/main/AndroidManifest.xml:1:1-47:12
MERGED from [:shared_preferences_android] /media/anas/Local Disk1/anas/testcase/testcase/build/shared_preferences_android/intermediates/library_manifest/debug/AndroidManifest.xml:2:1-7:12
MERGED from [:sqflite] /media/anas/Local Disk1/anas/testcase/testcase/build/sqflite/intermediates/library_manifest/debug/AndroidManifest.xml:2:1-7:12
MERGED from [:path_provider_android] /media/anas/Local Disk1/anas/testcase/testcase/build/path_provider_android/intermediates/library_manifest/debug/AndroidManifest.xml:2:1-7:12
MERGED from [:connectivity_plus] /media/anas/Local Disk1/anas/testcase/testcase/build/connectivity_plus/intermediates/library_manifest/debug/AndroidManifest.xml:2:1-9:12
MERGED from [androidx.fragment:fragment:1.1.0] /home/anas/.gradle/caches/transforms-2/files-2.1/0986d0d74b8a2c7da8161f6370fc7744/fragment-1.1.0/AndroidManifest.xml:17:1-24:12
MERGED from [androidx.viewpager:viewpager:1.0.0] /home/anas/.gradle/caches/transforms-2/files-2.1/28d99d5113324aa067757f8ca41a426f/viewpager-1.0.0/AndroidManifest.xml:17:1-22:12
MERGED from [androidx.loader:loader:1.0.0] /home/anas/.gradle/caches/transforms-2/files-2.1/e1bbce6b0d79e8479b70e7bd729bb743/loader-1.0.0/AndroidManifest.xml:17:1-22:12
MERGED from [androidx.activity:activity:1.0.0] /home/anas/.gradle/caches/transforms-2/files-2.1/615cab8ad6393a9c868d48761bbea666/activity-1.0.0/AndroidManifest.xml:17:1-24:12
MERGED from [androidx.customview:customview:1.0.0] /home/anas/.gradle/caches/transforms-2/files-2.1/ef0bef029ab70f5fb29de019060cf5fd/customview-1.0.0/AndroidManifest.xml:17:1-22:12
MERGED from [androidx.core:core:1.6.0] /home/anas/.gradle/caches/transforms-2/files-2.1/f90299ff420036e311b84c728802cd71/core-1.6.0/AndroidManifest.xml:17:1-26:12
MERGED from [androidx.lifecycle:lifecycle-runtime:2.2.0] /home/anas/.gradle/caches/transforms-2/files-2.1/49ede1f7b9aa322a43288e9745adc2db/lifecycle-runtime-2.2.0/AndroidManifest.xml:17:1-24:12
MERGED from [androidx.savedstate:savedstate:1.0.0] /home/anas/.gradle/caches/transforms-2/files-2.1/54d8b8735f730e83f07925f758092af3/savedstate-1.0.0/AndroidManifest.xml:17:1-24:12
MERGED from [androidx.lifecycle:lifecycle-livedata:2.0.0] /home/anas/.gradle/caches/transforms-2/files-2.1/23edc849475fdda61367cb003f9b9f93/lifecycle-livedata-2.0.0/AndroidManifest.xml:17:1-22:12
MERGED from [androidx.lifecycle:lifecycle-livedata-core:2.0.0] /home/anas/.gradle/caches/transforms-2/files-2.1/79f9d65ef8b1c716310f666473a689a7/lifecycle-livedata-core-2.0.0/AndroidManifest.xml:17:1-22:12
MERGED from [androidx.tracing:tracing:1.0.0] /home/anas/.gradle/caches/transforms-2/files-2.1/d606eb34fbe4f818c2c6052896a24d12/tracing-1.0.0/AndroidManifest.xml:17:1-24:12
MERGED from [androidx.arch.core:core-runtime:2.0.0] /home/anas/.gradle/caches/transforms-2/files-2.1/077300052aa327ee6fc9bbb0ce309b24/core-runtime-2.0.0/AndroidManifest.xml:17:1-22:12
MERGED from [androidx.versionedparcelable:versionedparcelable:1.1.1] /home/anas/.gradle/caches/transforms-2/files-2.1/94c726e196feb64bbc6cc40dd33b803e/versionedparcelable-1.1.1/AndroidManifest.xml:17:1-27:12
MERGED from [androidx.lifecycle:lifecycle-viewmodel:2.1.0] /home/anas/.gradle/caches/transforms-2/files-2.1/b80fad55c42c418cc210e235056767fb/lifecycle-viewmodel-2.1.0/AndroidManifest.xml:17:1-22:12
MERGED from [androidx.annotation:annotation-experimental:1.1.0] /home/anas/.gradle/caches/transforms-2/files-2.1/d13d2a60fd2ddd693d5135d89fe58392/jetified-annotation-experimental-1.1.0/AndroidManifest.xml:17:1-24:12
INJECTED from /media/anas/Local Disk1/anas/testcase/testcase/android/app/src/debug/AndroidManifest.xml:1:1-7:12
INJECTED from /media/anas/Local Disk1/anas/testcase/testcase/android/app/src/debug/AndroidManifest.xml:1:1-7:12
INJECTED from /media/anas/Local Disk1/anas/testcase/testcase/android/app/src/debug/AndroidManifest.xml:1:1-7:12
	package
		ADDED from /media/anas/Local Disk1/anas/testcase/testcase/android/app/src/main/AndroidManifest.xml:2:5-40
		INJECTED from /media/anas/Local Disk1/anas/testcase/testcase/android/app/src/main/AndroidManifest.xml
		INJECTED from /media/anas/Local Disk1/anas/testcase/testcase/android/app/src/debug/AndroidManifest.xml
	android:versionName
		INJECTED from /media/anas/Local Disk1/anas/testcase/testcase/android/app/src/main/AndroidManifest.xml
		ADDED from /media/anas/Local Disk1/anas/testcase/testcase/android/app/src/main/AndroidManifest.xml:1:1-47:12
		INJECTED from /media/anas/Local Disk1/anas/testcase/testcase/android/app/src/debug/AndroidManifest.xml
	android:versionCode
		INJECTED from /media/anas/Local Disk1/anas/testcase/testcase/android/app/src/main/AndroidManifest.xml
		ADDED from /media/anas/Local Disk1/anas/testcase/testcase/android/app/src/main/AndroidManifest.xml:1:1-47:12
		INJECTED from /media/anas/Local Disk1/anas/testcase/testcase/android/app/src/debug/AndroidManifest.xml
	xmlns:android
		ADDED from /media/anas/Local Disk1/anas/testcase/testcase/android/app/src/main/AndroidManifest.xml:1:11-69
application
ADDED from /media/anas/Local Disk1/anas/testcase/testcase/android/app/src/main/AndroidManifest.xml:8:5-46:19
MERGED from [androidx.core:core:1.6.0] /home/anas/.gradle/caches/transforms-2/files-2.1/f90299ff420036e311b84c728802cd71/core-1.6.0/AndroidManifest.xml:24:5-89
MERGED from [androidx.core:core:1.6.0] /home/anas/.gradle/caches/transforms-2/files-2.1/f90299ff420036e311b84c728802cd71/core-1.6.0/AndroidManifest.xml:24:5-89
MERGED from [androidx.versionedparcelable:versionedparcelable:1.1.1] /home/anas/.gradle/caches/transforms-2/files-2.1/94c726e196feb64bbc6cc40dd33b803e/versionedparcelable-1.1.1/AndroidManifest.xml:24:5-25:19
MERGED from [androidx.versionedparcelable:versionedparcelable:1.1.1] /home/anas/.gradle/caches/transforms-2/files-2.1/94c726e196feb64bbc6cc40dd33b803e/versionedparcelable-1.1.1/AndroidManifest.xml:24:5-25:19
	android:appComponentFactory
		ADDED from [androidx.core:core:1.6.0] /home/anas/.gradle/caches/transforms-2/files-2.1/f90299ff420036e311b84c728802cd71/core-1.6.0/AndroidManifest.xml:24:18-86
	android:label
		ADDED from /media/anas/Local Disk1/anas/testcase/testcase/android/app/src/main/AndroidManifest.xml:10:9-38
	android:icon
		ADDED from /media/anas/Local Disk1/anas/testcase/testcase/android/app/src/main/AndroidManifest.xml:11:9-43
	android:name
		ADDED from /media/anas/Local Disk1/anas/testcase/testcase/android/app/src/main/AndroidManifest.xml:9:9-57
activity#com.example.majootestcase.MainActivity
ADDED from /media/anas/Local Disk1/anas/testcase/testcase/android/app/src/main/AndroidManifest.xml:12:9-40:20
	android:launchMode
		ADDED from /media/anas/Local Disk1/anas/testcase/testcase/android/app/src/main/AndroidManifest.xml:14:13-43
	android:hardwareAccelerated
		ADDED from /media/anas/Local Disk1/anas/testcase/testcase/android/app/src/main/AndroidManifest.xml:17:13-47
	android:windowSoftInputMode
		ADDED from /media/anas/Local Disk1/anas/testcase/testcase/android/app/src/main/AndroidManifest.xml:18:13-55
	android:configChanges
		ADDED from /media/anas/Local Disk1/anas/testcase/testcase/android/app/src/main/AndroidManifest.xml:16:13-163
	android:theme
		ADDED from /media/anas/Local Disk1/anas/testcase/testcase/android/app/src/main/AndroidManifest.xml:15:13-47
	android:name
		ADDED from /media/anas/Local Disk1/anas/testcase/testcase/android/app/src/main/AndroidManifest.xml:13:13-41
meta-data#io.flutter.embedding.android.NormalTheme
ADDED from /media/anas/Local Disk1/anas/testcase/testcase/android/app/src/main/AndroidManifest.xml:23:13-26:17
	android:resource
		ADDED from /media/anas/Local Disk1/anas/testcase/testcase/android/app/src/main/AndroidManifest.xml:25:15-52
	android:name
		ADDED from /media/anas/Local Disk1/anas/testcase/testcase/android/app/src/main/AndroidManifest.xml:24:15-70
meta-data#io.flutter.embedding.android.SplashScreenDrawable
ADDED from /media/anas/Local Disk1/anas/testcase/testcase/android/app/src/main/AndroidManifest.xml:32:13-35:17
	android:resource
		ADDED from /media/anas/Local Disk1/anas/testcase/testcase/android/app/src/main/AndroidManifest.xml:34:15-61
	android:name
		ADDED from /media/anas/Local Disk1/anas/testcase/testcase/android/app/src/main/AndroidManifest.xml:33:15-79
intent-filter#action:name:android.intent.action.MAIN+category:name:android.intent.category.LAUNCHER
ADDED from /media/anas/Local Disk1/anas/testcase/testcase/android/app/src/main/AndroidManifest.xml:36:13-39:29
action#android.intent.action.MAIN
ADDED from /media/anas/Local Disk1/anas/testcase/testcase/android/app/src/main/AndroidManifest.xml:37:17-68
	android:name
		ADDED from /media/anas/Local Disk1/anas/testcase/testcase/android/app/src/main/AndroidManifest.xml:37:25-66
category#android.intent.category.LAUNCHER
ADDED from /media/anas/Local Disk1/anas/testcase/testcase/android/app/src/main/AndroidManifest.xml:38:17-76
	android:name
		ADDED from /media/anas/Local Disk1/anas/testcase/testcase/android/app/src/main/AndroidManifest.xml:38:27-74
meta-data#flutterEmbedding
ADDED from /media/anas/Local Disk1/anas/testcase/testcase/android/app/src/main/AndroidManifest.xml:43:9-45:33
	android:value
		ADDED from /media/anas/Local Disk1/anas/testcase/testcase/android/app/src/main/AndroidManifest.xml:45:13-30
	android:name
		ADDED from /media/anas/Local Disk1/anas/testcase/testcase/android/app/src/main/AndroidManifest.xml:44:13-44
uses-sdk
INJECTED from /media/anas/Local Disk1/anas/testcase/testcase/android/app/src/main/AndroidManifest.xml reason: use-sdk injection requested
INJECTED from /media/anas/Local Disk1/anas/testcase/testcase/android/app/src/main/AndroidManifest.xml
INJECTED from /media/anas/Local Disk1/anas/testcase/testcase/android/app/src/main/AndroidManifest.xml
MERGED from [:shared_preferences_android] /media/anas/Local Disk1/anas/testcase/testcase/build/shared_preferences_android/intermediates/library_manifest/debug/AndroidManifest.xml:5:5-44
MERGED from [:shared_preferences_android] /media/anas/Local Disk1/anas/testcase/testcase/build/shared_preferences_android/intermediates/library_manifest/debug/AndroidManifest.xml:5:5-44
MERGED from [:sqflite] /media/anas/Local Disk1/anas/testcase/testcase/build/sqflite/intermediates/library_manifest/debug/AndroidManifest.xml:5:5-44
MERGED from [:sqflite] /media/anas/Local Disk1/anas/testcase/testcase/build/sqflite/intermediates/library_manifest/debug/AndroidManifest.xml:5:5-44
MERGED from [:path_provider_android] /media/anas/Local Disk1/anas/testcase/testcase/build/path_provider_android/intermediates/library_manifest/debug/AndroidManifest.xml:5:5-44
MERGED from [:path_provider_android] /media/anas/Local Disk1/anas/testcase/testcase/build/path_provider_android/intermediates/library_manifest/debug/AndroidManifest.xml:5:5-44
MERGED from [:connectivity_plus] /media/anas/Local Disk1/anas/testcase/testcase/build/connectivity_plus/intermediates/library_manifest/debug/AndroidManifest.xml:5:5-44
MERGED from [:connectivity_plus] /media/anas/Local Disk1/anas/testcase/testcase/build/connectivity_plus/intermediates/library_manifest/debug/AndroidManifest.xml:5:5-44
MERGED from [androidx.fragment:fragment:1.1.0] /home/anas/.gradle/caches/transforms-2/files-2.1/0986d0d74b8a2c7da8161f6370fc7744/fragment-1.1.0/AndroidManifest.xml:20:5-22:41
MERGED from [androidx.fragment:fragment:1.1.0] /home/anas/.gradle/caches/transforms-2/files-2.1/0986d0d74b8a2c7da8161f6370fc7744/fragment-1.1.0/AndroidManifest.xml:20:5-22:41
MERGED from [androidx.viewpager:viewpager:1.0.0] /home/anas/.gradle/caches/transforms-2/files-2.1/28d99d5113324aa067757f8ca41a426f/viewpager-1.0.0/AndroidManifest.xml:20:5-44
MERGED from [androidx.viewpager:viewpager:1.0.0] /home/anas/.gradle/caches/transforms-2/files-2.1/28d99d5113324aa067757f8ca41a426f/viewpager-1.0.0/AndroidManifest.xml:20:5-44
MERGED from [androidx.loader:loader:1.0.0] /home/anas/.gradle/caches/transforms-2/files-2.1/e1bbce6b0d79e8479b70e7bd729bb743/loader-1.0.0/AndroidManifest.xml:20:5-44
MERGED from [androidx.loader:loader:1.0.0] /home/anas/.gradle/caches/transforms-2/files-2.1/e1bbce6b0d79e8479b70e7bd729bb743/loader-1.0.0/AndroidManifest.xml:20:5-44
MERGED from [androidx.activity:activity:1.0.0] /home/anas/.gradle/caches/transforms-2/files-2.1/615cab8ad6393a9c868d48761bbea666/activity-1.0.0/AndroidManifest.xml:20:5-22:41
MERGED from [androidx.activity:activity:1.0.0] /home/anas/.gradle/caches/transforms-2/files-2.1/615cab8ad6393a9c868d48761bbea666/activity-1.0.0/AndroidManifest.xml:20:5-22:41
MERGED from [androidx.customview:customview:1.0.0] /home/anas/.gradle/caches/transforms-2/files-2.1/ef0bef029ab70f5fb29de019060cf5fd/customview-1.0.0/AndroidManifest.xml:20:5-44
MERGED from [androidx.customview:customview:1.0.0] /home/anas/.gradle/caches/transforms-2/files-2.1/ef0bef029ab70f5fb29de019060cf5fd/customview-1.0.0/AndroidManifest.xml:20:5-44
MERGED from [androidx.core:core:1.6.0] /home/anas/.gradle/caches/transforms-2/files-2.1/f90299ff420036e311b84c728802cd71/core-1.6.0/AndroidManifest.xml:20:5-22:41
MERGED from [androidx.core:core:1.6.0] /home/anas/.gradle/caches/transforms-2/files-2.1/f90299ff420036e311b84c728802cd71/core-1.6.0/AndroidManifest.xml:20:5-22:41
MERGED from [androidx.lifecycle:lifecycle-runtime:2.2.0] /home/anas/.gradle/caches/transforms-2/files-2.1/49ede1f7b9aa322a43288e9745adc2db/lifecycle-runtime-2.2.0/AndroidManifest.xml:20:5-22:41
MERGED from [androidx.lifecycle:lifecycle-runtime:2.2.0] /home/anas/.gradle/caches/transforms-2/files-2.1/49ede1f7b9aa322a43288e9745adc2db/lifecycle-runtime-2.2.0/AndroidManifest.xml:20:5-22:41
MERGED from [androidx.savedstate:savedstate:1.0.0] /home/anas/.gradle/caches/transforms-2/files-2.1/54d8b8735f730e83f07925f758092af3/savedstate-1.0.0/AndroidManifest.xml:20:5-22:41
MERGED from [androidx.savedstate:savedstate:1.0.0] /home/anas/.gradle/caches/transforms-2/files-2.1/54d8b8735f730e83f07925f758092af3/savedstate-1.0.0/AndroidManifest.xml:20:5-22:41
MERGED from [androidx.lifecycle:lifecycle-livedata:2.0.0] /home/anas/.gradle/caches/transforms-2/files-2.1/23edc849475fdda61367cb003f9b9f93/lifecycle-livedata-2.0.0/AndroidManifest.xml:20:5-44
MERGED from [androidx.lifecycle:lifecycle-livedata:2.0.0] /home/anas/.gradle/caches/transforms-2/files-2.1/23edc849475fdda61367cb003f9b9f93/lifecycle-livedata-2.0.0/AndroidManifest.xml:20:5-44
MERGED from [androidx.lifecycle:lifecycle-livedata-core:2.0.0] /home/anas/.gradle/caches/transforms-2/files-2.1/79f9d65ef8b1c716310f666473a689a7/lifecycle-livedata-core-2.0.0/AndroidManifest.xml:20:5-44
MERGED from [androidx.lifecycle:lifecycle-livedata-core:2.0.0] /home/anas/.gradle/caches/transforms-2/files-2.1/79f9d65ef8b1c716310f666473a689a7/lifecycle-livedata-core-2.0.0/AndroidManifest.xml:20:5-44
MERGED from [androidx.tracing:tracing:1.0.0] /home/anas/.gradle/caches/transforms-2/files-2.1/d606eb34fbe4f818c2c6052896a24d12/tracing-1.0.0/AndroidManifest.xml:20:5-22:41
MERGED from [androidx.tracing:tracing:1.0.0] /home/anas/.gradle/caches/transforms-2/files-2.1/d606eb34fbe4f818c2c6052896a24d12/tracing-1.0.0/AndroidManifest.xml:20:5-22:41
MERGED from [androidx.arch.core:core-runtime:2.0.0] /home/anas/.gradle/caches/transforms-2/files-2.1/077300052aa327ee6fc9bbb0ce309b24/core-runtime-2.0.0/AndroidManifest.xml:20:5-44
MERGED from [androidx.arch.core:core-runtime:2.0.0] /home/anas/.gradle/caches/transforms-2/files-2.1/077300052aa327ee6fc9bbb0ce309b24/core-runtime-2.0.0/AndroidManifest.xml:20:5-44
MERGED from [androidx.versionedparcelable:versionedparcelable:1.1.1] /home/anas/.gradle/caches/transforms-2/files-2.1/94c726e196feb64bbc6cc40dd33b803e/versionedparcelable-1.1.1/AndroidManifest.xml:20:5-22:41
MERGED from [androidx.versionedparcelable:versionedparcelable:1.1.1] /home/anas/.gradle/caches/transforms-2/files-2.1/94c726e196feb64bbc6cc40dd33b803e/versionedparcelable-1.1.1/AndroidManifest.xml:20:5-22:41
MERGED from [androidx.lifecycle:lifecycle-viewmodel:2.1.0] /home/anas/.gradle/caches/transforms-2/files-2.1/b80fad55c42c418cc210e235056767fb/lifecycle-viewmodel-2.1.0/AndroidManifest.xml:20:5-44
MERGED from [androidx.lifecycle:lifecycle-viewmodel:2.1.0] /home/anas/.gradle/caches/transforms-2/files-2.1/b80fad55c42c418cc210e235056767fb/lifecycle-viewmodel-2.1.0/AndroidManifest.xml:20:5-44
MERGED from [androidx.annotation:annotation-experimental:1.1.0] /home/anas/.gradle/caches/transforms-2/files-2.1/d13d2a60fd2ddd693d5135d89fe58392/jetified-annotation-experimental-1.1.0/AndroidManifest.xml:20:5-22:41
MERGED from [androidx.annotation:annotation-experimental:1.1.0] /home/anas/.gradle/caches/transforms-2/files-2.1/d13d2a60fd2ddd693d5135d89fe58392/jetified-annotation-experimental-1.1.0/AndroidManifest.xml:20:5-22:41
INJECTED from /media/anas/Local Disk1/anas/testcase/testcase/android/app/src/debug/AndroidManifest.xml
INJECTED from /media/anas/Local Disk1/anas/testcase/testcase/android/app/src/debug/AndroidManifest.xml
	android:targetSdkVersion
		INJECTED from /media/anas/Local Disk1/anas/testcase/testcase/android/app/src/main/AndroidManifest.xml
		INJECTED from /media/anas/Local Disk1/anas/testcase/testcase/android/app/src/debug/AndroidManifest.xml
	android:minSdkVersion
		INJECTED from /media/anas/Local Disk1/anas/testcase/testcase/android/app/src/main/AndroidManifest.xml
		INJECTED from /media/anas/Local Disk1/anas/testcase/testcase/android/app/src/debug/AndroidManifest.xml
uses-permission#android.permission.INTERNET
ADDED from /media/anas/Local Disk1/anas/testcase/testcase/android/app/src/debug/AndroidManifest.xml:6:5-66
	android:name
		ADDED from /media/anas/Local Disk1/anas/testcase/testcase/android/app/src/debug/AndroidManifest.xml:6:22-64
uses-permission#android.permission.ACCESS_NETWORK_STATE
ADDED from [:connectivity_plus] /media/anas/Local Disk1/anas/testcase/testcase/build/connectivity_plus/intermediates/library_manifest/debug/AndroidManifest.xml:7:5-79
	android:name
		ADDED from [:connectivity_plus] /media/anas/Local Disk1/anas/testcase/testcase/build/connectivity_plus/intermediates/library_manifest/debug/AndroidManifest.xml:7:22-76
